…
``` r
data_dir <- arrow::open_dataset("data/injuries/season=2023/")
data_dir |>
    filter(team=="BUF") |>
    collect()
```

    ## # A tibble: 161 × 16
    ##    season game_type team   week gsis_id  position full_name first_name last_name
    ##  *  <int> <chr>     <chr> <int> <chr>    <chr>    <chr>     <chr>      <chr>    
    ##  1   2023 REG       BUF       1 00-0030… S        Micah Hy… Micah      Hyde     
    ##  2   2023 REG       BUF       2 00-0031… C        Mitch Mo… Mitch      Morse    
    ##  3   2023 REG       BUF       3 00-0030… S        Jordan P… Jordan     Poyer    
    ##  4   2023 REG       BUF       3 00-0033… CB       Tre'Davi… Tre'Davio… White    
    ##  5   2023 REG       BUF       3 00-0037… LB       Terrel B… Terrel     Bernard  
    ##  6   2023 REG       BUF       3 00-0036… T        Spencer … Spencer    Brown    
    ##  7   2023 REG       BUF       3 00-0037… RB       James Co… James      Cook     
    ##  8   2023 REG       BUF       3 00-0033… DE       Leonard … Leonard    Floyd    
    ##  9   2023 REG       BUF       3 00-0030… S        Micah Hy… Micah      Hyde     
    ## 10   2023 REG       BUF       3 00-0035… TE       Dawson K… Dawson     Knox     
    ## # ℹ 151 more rows
    ## # ℹ 7 more variables: report_primary_injury <chr>,
    ## #   report_secondary_injury <chr>, report_status <chr>,
    ## #   practice_primary_injury <chr>, practice_secondary_injury <chr>,
    ## #   practice_status <chr>, date_modified <dttm>
…
    collect() |>
    pivot_longer(
        cols = contains('player_name'),
        names_to = "play_action",
        values_to = "player_name"
    ) |>
    mutate(
        play_id = factor(play_id),
        play_action = stringr::str_remove(play_action,"_player_name"),
        play_action = stringr::str_remove(play_action,"_[0-9]$")
    ) |>
    drop_na()
```

    ## # A tibble: 538 × 4
    ##    play_id game_id         play_action      player_name 
    ##    <fct>   <chr>           <chr>            <chr>       
    ##  1 39      2023_19_PIT_BUF kickoff_returner J.Warren    
    ##  2 39      2023_19_PIT_BUF kicker           T.Bass      
    ##  3 39      2023_19_PIT_BUF solo_tackle      T.Matakevich
    ##  4 64      2023_19_PIT_BUF rusher           N.Harris    
    ##  5 64      2023_19_PIT_BUF solo_tackle      G.Rousseau  
    ##  6 64      2023_19_PIT_BUF fantasy          N.Harris    
    ##  7 86      2023_19_PIT_BUF passer           M.Rudolph   
    ##  8 86      2023_19_PIT_BUF receiver         J.Warren    
    ##  9 86      2023_19_PIT_BUF solo_tackle      J.Poyer     
    ## 10 86      2023_19_PIT_BUF fantasy          J.Warren    
    ## # ℹ 528 more rows
…
``` r
data_dir <- arrow::open_dataset("data/nextgen_stats/ngs_receiving.parquet")
data_dir |>
    filter(season==2023L & week==1) |>
    collect()
```

    ## # A tibble: 79 × 23
    ##    season season_type  week player_display_name player_position team_abbr
    ##  *  <int> <chr>       <int> <chr>               <chr>           <chr>    
    ##  1   2023 REG             1 Demario Douglas     WR              NE       
    ##  2   2023 REG             1 Jaxon Smith-Njigba  WR              SEA      
    ##  3   2023 REG             1 Calvin Austin       WR              PIT      
    ##  4   2023 REG             1 Chris Godwin        WR              TB       
    ##  5   2023 REG             1 Curtis Samuel       WR              WAS      
    ##  6   2023 REG             1 Rashid Shaheed      WR              NO       
    ##  7   2023 REG             1 Hayden Hurst        TE              CAR      
    ##  8   2023 REG             1 Zach Ertz           TE              ARI      
    ##  9   2023 REG             1 K.J. Osborn         WR              MIN      
    ## 10   2023 REG             1 Jahan Dotson        WR              WAS      
    ## # ℹ 69 more rows
    ## # ℹ 17 more variables: avg_cushion <dbl>, avg_separation <dbl>,
    ## #   avg_intended_air_yards <dbl>, percent_share_of_intended_air_yards <dbl>,
    ## #   receptions <int>, targets <int>, catch_percentage <dbl>, yards <int>,
    ## #   rec_touchdowns <int>, avg_yac <dbl>, avg_expected_yac <dbl>,
    ## #   avg_yac_above_expectation <dbl>, player_gsis_id <chr>,
    ## #   player_first_name <chr>, player_last_name <chr>, …
…
``` r
data_dir <- arrow::open_dataset("data/pbp_participation")
data_dir |>
    filter(season==2023L,possession_team=="BUF") |>
    collect()
```

    ## # A tibble: 1,417 × 21
    ##    nflverse_game_id old_game_id play_id possession_team offense_formation
    ##  * <chr>            <chr>         <int> <chr>           <chr>            
    ##  1 2023_01_BUF_NYJ  2023091100       58 BUF             SHOTGUN          
    ##  2 2023_01_BUF_NYJ  2023091100       83 BUF             SHOTGUN          
    ##  3 2023_01_BUF_NYJ  2023091100      108 BUF             SINGLEBACK       
    ##  4 2023_01_BUF_NYJ  2023091100      130 BUF             SHOTGUN          
    ##  5 2023_01_BUF_NYJ  2023091100      152 BUF             SHOTGUN          
    ##  6 2023_01_BUF_NYJ  2023091100      175 BUF             <NA>             
    ##  7 2023_01_BUF_NYJ  2023091100      382 BUF             <NA>             
    ##  8 2023_01_BUF_NYJ  2023091100      413 BUF             SHOTGUN          
    ##  9 2023_01_BUF_NYJ  2023091100      435 BUF             PISTOL           
    ## 10 2023_01_BUF_NYJ  2023091100      460 BUF             SHOTGUN          
    ## # ℹ 1,407 more rows
    ## # ℹ 16 more variables: offense_personnel <chr>, defenders_in_box <int>,
    ## #   defense_personnel <chr>, number_of_pass_rushers <int>,
    ## #   players_on_play <chr>, offense_players <chr>, defense_players <chr>,
    ## #   n_offense <int>, n_defense <int>, ngs_air_yards <dbl>, time_to_throw <dbl>,
    ## #   was_pressure <lgl>, route <chr>, defense_man_zone_type <chr>,
    ## #   defense_coverage_type <chr>, season <int>
…
